{
    "id": "8e2afcd6-f48c-11e6-8d69-f23c91797dc5",
    "type": "script",
    "name": "plotter",
    "configurations": [
        {
            "type": "application/json",
            "file": "inputs_config.json",
            "schema": "inputs_options.json",
            "name": "Inputs Options"
        },
        {
            "type": "application/json",
            "file": "layout_config.json",
            "schema": "figure_options.json",
            "name": "Figure Options"
        }
    ],

    "outputs": [
        {
            "type": "application/json",
            "subtype": "plotly",
            "createIn": "new_output"
        }
    ],

    "architecture": "x86-64",
    "environment": "ubuntu:SSTOS",
    "build":
    {
        "language": "bash",
        "script": "build.sh"
    },
        "run":
    {
        "language": "python",
        "script": "run.py",
        "version": "3.5.0"
    },

    "inputs": [
        {
            "type": "application/json"
        },
        {
            "type": "application/csv"
        }
    ],

    "comments":
    {

        "inputs": [
            {
                "type": "application/json"
            }
        ],

        "outputs": [
            {
                "subtype": "plotly",
                "type": "application/json",
                "pattern": "*.json"
            }
        ],

        "architecture": "x86-64",
        "environment": "ubuntu:14.04",
        "run": {
            "language": "python",
            "script": "launch.py",
            "version": "3.3.0"
        }
    }
}
